{
	"info": {
		"_postman_id": "4aabe416-2d6e-46a9-88ba-ffb60a56e227",
		"name": "TestJava",
		"schema": "https://schema.getpostman.com/json/collection/v2.1.0/collection.json",
		"_exporter_id": "18203458"
	},
	"item": [
		{
			"name": "GetPriceApply Test1",
			"request": {
				"method": "GET",
				"header": [],
				"url": {
					"raw": "http://localhost:8080?date=2020-06-14T10:00:00&productId=35455&brandId=1",
					"protocol": "http",
					"host": [
						"localhost"
					],
					"port": "8080",
					"query": [
						{
							"key": "date",
							"value": "2020-06-14T10:00:00"
						},
						{
							"key": "productId",
							"value": "35455"
						},
						{
							"key": "brandId",
							"value": "1"
						}
					]
				}
			},
			"response": [
				{
					"name": "200",
					"originalRequest": {
						"method": "GET",
						"header": [],
						"url": {
							"raw": "http://localhost:8080?date=2020-06-14T10:00:00&productId=35455&brandId=1",
							"protocol": "http",
							"host": [
								"localhost"
							],
							"port": "8080",
							"query": [
								{
									"key": "date",
									"value": "2020-06-14T10:00:00"
								},
								{
									"key": "productId",
									"value": "35455"
								},
								{
									"key": "brandId",
									"value": "1"
								}
							]
						}
					},
					"status": "OK",
					"code": 200,
					"_postman_previewlanguage": "json",
					"header": [
						{
							"key": "Content-Type",
							"value": "application/json",
							"name": "Content-Type",
							"description": "",
							"type": "text"
						}
					],
					"cookie": [],
					"body": "{\r\n    \"productId\": 35455,\r\n    \"brandId\": 1,\r\n    \"date\": \"2020-06-14T10:00:00\",\r\n    \"priceList\": 1,\r\n    \"price\": 35.5\r\n}"
				}
			]
		},
		{
			"name": "GetPriceApply Test2",
			"request": {
				"method": "GET",
				"header": [],
				"url": {
					"raw": "http://localhost:8080?date=2020-06-14T16:00:00&productId=35455&brandId=1",
					"protocol": "http",
					"host": [
						"localhost"
					],
					"port": "8080",
					"query": [
						{
							"key": "date",
							"value": "2020-06-14T16:00:00"
						},
						{
							"key": "productId",
							"value": "35455"
						},
						{
							"key": "brandId",
							"value": "1"
						}
					]
				}
			},
			"response": [
				{
					"name": "200",
					"originalRequest": {
						"method": "GET",
						"header": [],
						"url": {
							"raw": "http://localhost:8080?date=2020-06-14T16:00:00&productId=35455&brandId=1",
							"protocol": "http",
							"host": [
								"localhost"
							],
							"port": "8080",
							"query": [
								{
									"key": "date",
									"value": "2020-06-14T16:00:00"
								},
								{
									"key": "productId",
									"value": "35455"
								},
								{
									"key": "brandId",
									"value": "1"
								}
							]
						}
					},
					"status": "OK",
					"code": 200,
					"_postman_previewlanguage": "json",
					"header": [
						{
							"key": "Content-Type",
							"value": "application/json",
							"name": "Content-Type",
							"description": "",
							"type": "text"
						}
					],
					"cookie": [],
					"body": "{\r\n    \"productId\": 35455,\r\n    \"brandId\": 1,\r\n    \"date\": \"2020-06-14T16:00:00\",\r\n    \"priceList\": 2,\r\n    \"price\": 25.45\r\n}"
				}
			]
		},
		{
			"name": "GetPriceApply Test3",
			"request": {
				"method": "GET",
				"header": [],
				"url": {
					"raw": "http://localhost:8080?date=2020-06-14T21:00:00&productId=35455&brandId=1",
					"protocol": "http",
					"host": [
						"localhost"
					],
					"port": "8080",
					"query": [
						{
							"key": "date",
							"value": "2020-06-14T21:00:00"
						},
						{
							"key": "productId",
							"value": "35455"
						},
						{
							"key": "brandId",
							"value": "1"
						}
					]
				}
			},
			"response": [
				{
					"name": "200",
					"originalRequest": {
						"method": "GET",
						"header": [],
						"url": {
							"raw": "http://localhost:8080?date=2020-06-14T21:00:00&productId=35455&brandId=1",
							"protocol": "http",
							"host": [
								"localhost"
							],
							"port": "8080",
							"query": [
								{
									"key": "date",
									"value": "2020-06-14T21:00:00"
								},
								{
									"key": "productId",
									"value": "35455"
								},
								{
									"key": "brandId",
									"value": "1"
								}
							]
						}
					},
					"status": "OK",
					"code": 200,
					"_postman_previewlanguage": "json",
					"header": [
						{
							"key": "Content-Type",
							"value": "application/json",
							"name": "Content-Type",
							"description": "",
							"type": "text"
						}
					],
					"cookie": [],
					"body": "{\r\n    \"productId\": 35455,\r\n    \"brandId\": 1,\r\n    \"date\": \"2020-06-14T21:00:00\",\r\n    \"priceList\": 1,\r\n    \"price\": 35.5\r\n}"
				}
			]
		},
		{
			"name": "GetPriceApply Test4",
			"request": {
				"method": "GET",
				"header": [],
				"url": {
					"raw": "http://localhost:8080?date=2020-06-15T10:00:00&productId=35455&brandId=1",
					"protocol": "http",
					"host": [
						"localhost"
					],
					"port": "8080",
					"query": [
						{
							"key": "date",
							"value": "2020-06-15T10:00:00"
						},
						{
							"key": "productId",
							"value": "35455"
						},
						{
							"key": "brandId",
							"value": "1"
						}
					]
				}
			},
			"response": [
				{
					"name": "200",
					"originalRequest": {
						"method": "GET",
						"header": [],
						"url": {
							"raw": "http://localhost:8080?date=2020-06-15T10:00:00&productId=35455&brandId=1",
							"protocol": "http",
							"host": [
								"localhost"
							],
							"port": "8080",
							"query": [
								{
									"key": "date",
									"value": "2020-06-15T10:00:00"
								},
								{
									"key": "productId",
									"value": "35455"
								},
								{
									"key": "brandId",
									"value": "1"
								}
							]
						}
					},
					"status": "OK",
					"code": 200,
					"_postman_previewlanguage": "json",
					"header": [
						{
							"key": "Content-Type",
							"value": "application/json",
							"name": "Content-Type",
							"description": "",
							"type": "text"
						}
					],
					"cookie": [],
					"body": "{\r\n    \"productId\": 35455,\r\n    \"brandId\": 1,\r\n    \"date\": \"2020-06-15T10:00:00\",\r\n    \"priceList\": 3,\r\n    \"price\": 30.5\r\n}"
				}
			]
		},
		{
			"name": "GetPriceApply Test5",
			"request": {
				"method": "GET",
				"header": [],
				"url": {
					"raw": "http://localhost:8080?date=2020-06-16T21:00:00&productId=35455&brandId=1",
					"protocol": "http",
					"host": [
						"localhost"
					],
					"port": "8080",
					"query": [
						{
							"key": "date",
							"value": "2020-06-16T21:00:00"
						},
						{
							"key": "productId",
							"value": "35455"
						},
						{
							"key": "brandId",
							"value": "1"
						}
					]
				}
			},
			"response": [
				{
					"name": "200",
					"originalRequest": {
						"method": "GET",
						"header": [],
						"url": {
							"raw": "http://localhost:8080?date=2020-06-16T21:00:00&productId=35455&brandId=1",
							"protocol": "http",
							"host": [
								"localhost"
							],
							"port": "8080",
							"query": [
								{
									"key": "date",
									"value": "2020-06-16T21:00:00"
								},
								{
									"key": "productId",
									"value": "35455"
								},
								{
									"key": "brandId",
									"value": "1"
								}
							]
						}
					},
					"status": "OK",
					"code": 200,
					"_postman_previewlanguage": "json",
					"header": [
						{
							"key": "Content-Type",
							"value": "application/json",
							"name": "Content-Type",
							"description": "",
							"type": "text"
						}
					],
					"cookie": [],
					"body": "{\r\n    \"productId\": 35455,\r\n    \"brandId\": 1,\r\n    \"date\": \"2020-06-16T21:00:00\",\r\n    \"priceList\": 4,\r\n    \"price\": 38.95\r\n}"
				}
			]
		}
	]
}